%YAML 1.1
%TAG !u! tag:unity3d.com,2011:
--- !u!114 &11400000
MonoBehaviour:
  m_ObjectHideFlags: 0
  m_CorrespondingSourceObject: {fileID: 0}
  m_PrefabInternal: {fileID: 0}
  m_GameObject: {fileID: 0}
  m_Enabled: 1
  m_EditorHideFlags: 0
  m_Script: {fileID: 11500000, guid: 5a3470060a741e449b321d0d30b2d615, type: 3}
  m_Name: Level 6
  m_EditorClassIdentifier: 
  Metter: 200
  ObjectBouncy: 00000000010000000200000000000000000000000100000001000000000000000200000000000000
