%YAML 1.1
%TAG !u! tag:unity3d.com,2011:
--- !u!21 &2100000
Material:
  serializedVersion: 6
  m_ObjectHideFlags: 0
  m_CorrespondingSourceObject: {fileID: 0}
  m_PrefabInternal: {fileID: 0}
  m_Name: Gradient
  m_Shader: {fileID: 4800000, guid: 14fe3313b44fe034195e7dc6568336f2, type: 3}
  m_ShaderKeywords: ETC1_EXTERNAL_ALPHA
  m_LightmapFlags: 4
  m_EnableInstancingVariants: 0
  m_DoubleSidedGI: 0
  m_CustomRenderQueue: -1
  stringTagMap: {}
  disabledShaderPasses: []
  m_SavedProperties:
    serializedVersion: 3
    m_TexEnvs:
    - _AlphaMap:
        m_Texture: {fileID: 2800000, guid: 71289d676631b6148aecc86cc73a1db0, type: 3}
        m_Scale: {x: 1, y: 1}
        m_Offset: {x: 0, y: 0}
    - _BumpMap:
        m_Texture: {fileID: 2800000, guid: 71289d676631b6148aecc86cc73a1db0, type: 3}
        m_Scale: {x: 1, y: 1}
        m_Offset: {x: 0, y: 0}
    - _DetailAlbedoMap:
        m_Texture: {fileID: 0}
        m_Scale: {x: 1, y: 1}
        m_Offset: {x: 0, y: 0}
    - _DetailMask:
        m_Texture: {fileID: 0}
        m_Scale: {x: 1, y: 1}
        m_Offset: {x: 0, y: 0}
    - _DetailNormalMap:
        m_Texture: {fileID: 0}
        m_Scale: {x: 1, y: 1}
        m_Offset: {x: 0, y: 0}
    - _EmissionMap:
        m_Texture: {fileID: 0}
        m_Scale: {x: 1, y: 1}
        m_Offset: {x: 0, y: 0}
    - _MainTex:
        m_Texture: {fileID: 2800000, guid: 71289d676631b6148aecc86cc73a1db0, type: 3}
        m_Scale: {x: 1, y: 1}
        m_Offset: {x: 0, y: 0}
    - _MaskTex:
        m_Texture: {fileID: 0}
        m_Scale: {x: 1, y: 1}
        m_Offset: {x: 0, y: 0}
    - _MetallicGlossMap:
        m_Texture: {fileID: 0}
        m_Scale: {x: 1, y: 1}
        m_Offset: {x: 0, y: 0}
    - _OcclusionMap:
        m_Texture: {fileID: 0}
        m_Scale: {x: 1, y: 1}
        m_Offset: {x: 0, y: 0}
    - _ParallaxMap:
        m_Texture: {fileID: 0}
        m_Scale: {x: 1, y: 1}
        m_Offset: {x: 0, y: 0}
    - _SecondaryTex:
        m_Texture: {fileID: 2800000, guid: 572cffb01b5f4744692b3c56bb3f9e94, type: 3}
        m_Scale: {x: 1, y: 1}
        m_Offset: {x: 0, y: 0}
    m_Floats:
    - _Alpha: 1
    - _Amount: 1
    - _Amplitude: 1
    - _BumpScale: 1
    - _Cutoff: 0.5
    - _CutoutThresh: 0.2
    - _DetailNormalMapScale: 1
    - _Distance: 1
    - _DstBlend: 0
    - _GlossMapScale: 1
    - _Glossiness: 0.5
    - _GlossyReflections: 1
    - _Height: -0.05
    - _HueShift: 0
    - _Metallic: 0
    - _Middle: 0.001
    - _Mode: 0
    - _OcclusionStrength: 1
    - _Parallax: 0.02
    - _RimPower: 3
    - _Scale: -4.87
    - _Shininess: 0.078125
    - _SmoothnessTextureChannel: 0
    - _SpecularHighlights: 1
    - _Speed: 1
    - _SrcBlend: 1
    - _Transparency: 0.25
    - _UVSec: 0
    - _ZWrite: 1
    m_Colors:
    - _BottomColor: {r: 1, g: 0.8632076, b: 0.8632076, a: 0}
    - _Color: {r: 1, g: 1, b: 1, a: 1}
    - _Color1: {r: 1, g: 0, b: 0, a: 1}
    - _Color2: {r: 1, g: 0, b: 0, a: 1}
    - _ColorBot: {r: 1, g: 0, b: 0.8691969, a: 1}
    - _ColorMid: {r: 1, g: 0.7409057, b: 0, a: 1}
    - _ColorTop: {r: 1, g: 0, b: 0, a: 0}
    - _EmissionColor: {r: 0, g: 0, b: 0, a: 1}
    - _RimColor: {r: 0.9150943, g: 0.09927912, b: 0.09927912, a: 1}
    - _SecondaryTexScale: {r: 1, g: 1, b: 1, a: 0}
    - _SkyBottom: {r: 1, g: 1, b: 1, a: 1}
    - _SkyMiddle: {r: 1, g: 1, b: 1, a: 0.63529414}
    - _SkyTop: {r: 1, g: 1, b: 1, a: 1}
    - _SpecColor: {r: 0.5, g: 0.5, b: 0.5, a: 1}
    - _TintColor: {r: 1, g: 1, b: 1, a: 1}
    - _TopColor: {r: 0, g: 0, b: 0, a: 0.26666668}
